main/increment/interpolation/vcd_traces.vcd
$date
     Jun 09, 2010       16:35:31
$end

$version
              SystemC 2.2.0 --- Sep  1 2009 15:55:03
$end

$timescale
     1 ps
$end

$scope module SystemC $end
$var wire    1  aaa  clk       $end
$var wire    1  aab  resetn       $end
$var wire    8  aac  out [7:0]  $end
$var real    1  aad  x       $end
$var real    1  aae  y       $end
$var wire    8  aaf  bufferin0 [7:0]  $end
$var wire    8  aag  bufferin1 [7:0]  $end
$var wire    8  aah  bufferin2 [7:0]  $end
$var wire    8  aai  bufferin3 [7:0]  $end
$var wire   32  aaj  buffercommand0 [31:0]  $end
$var wire   32  aak  buffercommand1 [31:0]  $end
$upscope $end
$enddefinitions  $end

$comment
All initial values are dumped below at time 0 sec = 0 timescale units.
$end

$dumpvars
1aaa
0aab
b0 aac
r0 aad
r0 aae
b0 aaf
b0 aag
b0 aah
b0 aai
b0 aaj
b0 aak
$end

#1000
1aab

#5000
0aaa

#10000
1aaa
r1 aad
r1 aae

#15000
0aaa
b1 aaj
b1 aak

#20000
1aaa
r2.299999952316284 aad
r3.599999904632568 aae

#25000
0aaa
b110010 aag
b1100100 aah
b10010110 aai
b10 aaj
b11 aak

#30000
1aaa
r0 aad
r0 aae

#35000
0aaa
b0 aaj
b0 aak

#40000
1aaa

#45000
0aaa
b111011 aac

#50000
1aaa

#55000
0aaa
b0 aac

